{
  "requestId": "${requestId}",
  "buyerId": "${buyerId}",
  "receivedDateTime": "${receivedTime}",
  "numberOfInstructions": "${numInstructions}",
  "totalValue": "${controlSum}",
  "instructions": [
